data-collection/scope-analysis/2024-07-03_fast_scope/cav2_fullscale_ref.csv

"Record Length",50000,"Points",-5.10000000e-007,-8.00000012e-003
"Sample Interval",1.00000000e-010,s,-5.09900000e-007,0.00000000e+000
"Trigger Point",5100,"Samples",-5.09800000e-007,8.00000012e-003
"Trigger Time",3.71923077e-011,s,-5.09700000e-007,-8.00000012e-003
"",,,-5.09600000e-007,0.00000000e+000
"Horizontal Offset",-5.10000000e-007,s,-5.09500000e-007,8.00000012e-003
,,,-5.09400000e-007,8.00000012e-003
,,,-5.09300000e-007,8.00000012e-003
,,,-5.09200000e-007,-1.60000002e-002
,,,-5.09100000e-007,-1.60000002e-002
,,,-5.09000000e-007,0.00000000e+000
,,,-5.08900000e-007,-1.60000002e-002
,,,-5.08800000e-007,0.00000000e+000
,,,-5.08700000e-007,8.00000012e-003
,,,-5.08600000e-007,0.00000000e+000
,,,-5.08500000e-007,8.00000012e-003
,,,-5.08400000e-007,-8.00000012e-003
,,,-5.08300000e-007,-8.00000012e-003
,,,-5.08200000e-007,8.00000012e-003
,,,-5.08100000e-007,0.00000000e+000
,,,-5.08000000e-007,0.00000000e+000
,,,-5.07900000e-007,-8.00000012e-003
,,,-5.07800000e-007,1.60000002e-002
,,,-5.07700000e-007,2.40000004e-002
,,,-5.07600000e-007,0.00000000e+000
,,,-5.07500000e-007,8.00000012e-003
,,,-5.07400000e-007,8.00000012e-003
,,,-5.07300000e-007,0.00000000e+000
,,,-5.07200000e-007,8.00000012e-003
,,,-5.07100000e-007,-1.60000002e-002
,,,-5.07000000e-007,-8.00000012e-003
,,,-5.06900000e-007,-8.00000012e-003
,,,-5.06800000e-007,-8.00000012e-003
,,,-5.06700000e-007,1.60000002e-002
,,,-5.06600000e-007,0.00000000e+000
,,,-5.06500000e-007,-8.00000012e-003
,,,-5.06400000e-007,8.00000012e-003
,,,-5.06300000e-007,0.00000000e+000
,,,-5.06200000e-007,-8.00000012e-003
,,,-5.06100000e-007,0.00000000e+000
,,,-5.06000000e-007,8.00000012e-003
,,,-5.05900000e-007,8.00000012e-003
,,,-5.05800000e-007,-8.00000012e-003
,,,-5.05700000e-007,-8.00000012e-003
,,,-5.05600000e-007,0.00000000e+000
,,,-5.05500000e-007,-8.00000012e-003
,,,-5.05400000e-007,8.00000012e-003
,,,-5.05300000e-007,8.00000012e-003
,,,-5.05200000e-007,0.00000000e+000
,,,-5.05100000e-007,-8.00000012e-003
,,,-5.05000000e-007,-1.60000002e-002
,,,-5.04900000e-007,8.00000012e-003
,,,-5.04800000e-007,0.00000000e+000
,,,-5.04700000e-007,-1.60000002e-002
,,,-5.04600000e-007,0.00000000e+000
,,,-5.04500000e-007,0.00000000e+000
,,,-5.04400000e-007,8.00000012e-003
,,,-5.04300000e-007,1.60000002e-002
,,,-5.04200000e-007,0.00000000e+000
,,,-5.04100000e-007,-8.00000012e-003
,,,-5.04000000e-007,-1.60000002e-002
,,,-5.03900000e-007,-8.00000012e-003
,,,-5.03800000e-007,2.40000004e-002
,,,-5.03700000e-007,8.00000012e-003
,,,-5.03600000e-007,0.00000000e+000
,,,-5.03500000e-007,8.00000012e-003
,,,-5.03400000e-007,-8.00000012e-003
,,,-5.03300000e-007,8.00000012e-003
,,,-5.03200000e-007,0.00000000e+000
,,,-5.03100000e-007,-8.00000012e-003
,,,-5.03000000e-007,0.00000000e+000
,,,-5.02900000e-007,-8.00000012e-003
,,,-5.02800000e-007,1.60000002e-002
,,,-5.02700000e-007,2.40000004e-002
,,,-5.02600000e-007,8.00000012e-003
,,,-5.02500000e-007,8.00000012e-003
,,,-5.02400000e-007,0.00000000e+000
,,,-5.02300000e-007,0.00000000e+000
,,,-5.02200000e-007,1.60000002e-002
,,,-5.02100000e-007,-8.00000012e-003
,,,-5.02000000e-007,0.00000000e+000
,,,-5.01900000e-007,1.60000002e-002
,,,-5.01800000e-007,-8.00000012e-003
,,,-5.01700000e-007,-8.00000012e-003
,,,-5.01600000e-007,8.00000012e-003
,,,-5.01500000e-007,0.00000000e+000
,,,-5.01400000e-007,0.00000000e+000
,,,-5.01300000e-007,-8.00000012e-003
,,,-5.01200000e-007,-8.00000012e-003
,,,-5.01100000e-007,0.00000000e+000
,,,-5.01000000e-007,0.00000000e+000
,,,-5.00900000e-007,-8.00000012e-003
,,,-5.00800000e-007,-8.00000012e-003
,,,-5.00700000e-007,-8.00000012e-003
,,,-5.00600000e-007,8.00000012e-003
,,,-5.00500000e-007,8.00000012e-003
,,,-5.00400000e-007,0.00000000e+000
,,,-5.00300000e-007,0.00000000e+000
,,,-5.00200000e-007,8.00000012e-003
,,,-5.00100000e-007,8.00000012e-003
,,,-5.00000000e-007,0.00000000e+000
,,,-4.99900000e-007,-8.00000012e-003
,,,-4.99800000e-007,0.00000000e+000
,,,-4.99700000e-007,8.00000012e-003
,,,-4.99600000e-007,0.00000000e+000
,,,-4.99500000e-007,0.00000000e+000
,,,-4.99400000e-007,8.00000012e-003
,,,-4.99300000e-007,0.00000000e+000
,,,-4.99200000e-007,0.00000000e+000
,,,-4.99100000e-007,0.00000000e+000
,,,-4.99000000e-007,0.00000000e+000
,,,-4.98900000e-007,8.00000012e-003
,,,-4.98800000e-007,0.00000000e+000
,,,-4.98700000e-007,0.00000000e+000
,,,-4.98600000e-007,1.60000002e-002
,,,-4.98500000e-007,0.00000000e+000
,,,-4.98400000e-007,-8.00000012e-003
,,,-4.98300000e-007,8.00000012e-003
,,,-4.98200000e-007,8.00000012e-003
,,,-4.98100000e-007,0.00000000e+000
,,,-4.98000000e-007,-8.00000012e-003
,,,-4.97900000e-007,-8.00000012e-003
,,,-4.97800000e-007,-8.00000012e-003
,,,-4.97700000e-007,8.00000012e-003
,,,-4.97600000e-007,0.00000000e+000
,,,-4.97500000e-007,-1.60000002e-002
,,,-4.97400000e-007,0.00000000e+000
,,,-4.97300000e-007,-8.00000012e-003
,,,-4.97200000e-007,-8.00000012e-003
,,,-4.97100000e-007,8.00000012e-003
,,,-4.97000000e-007,-8.00000012e-003
,,,-4.96900000e-007,8.00000012e-003
,,,-4.96800000e-007,8.00000012e-003
,,,-4.96700000e-007,-2.40000004e-002
,,,-4.96600000e-007,8.00000012e-003
,,,-4.96500000e-007,1.60000002e-002
,,,-4.96400000e-007,0.00000000e+000
,,,-4.96300000e-007,8.00000012e-003
,,,-4.96200000e-007,0.00000000e+000
,,,-4.96100000e-007,-8.00000012e-003
,,,-4.96000000e-007,8.00000012e-003
,,,-4.95900000e-007,2.40000004e-002
,,,-4.95800000e-007,0.00000000e+000
,,,-4.95700000e-007,-8.00000012e-003
,,,-4.95600000e-007,0.00000000e+000
,,,-4.95500000e-007,8.00000012e-003
,,,-4.95400000e-007,-8.00000012e-003
,,,-4.95300000e-007,-2.40000004e-002
,,,-4.95200000e-007,0.00000000e+000
,,,-4.95100000e-007,-8.00000012e-003
,,,-4.95000000e-007,-8.00000012e-003
,,,-4.94900000e-007,8.00000012e-003
,,,-4.94800000e-007,-1.60000002e-002
,,,-4.94700000e-007,0.00000000e+000
,,,-4.94600000e-007,2.40000004e-002
,,,-4.94500000e-007,8.00000012e-003
,,,-4.94400000e-007,8.00000012e-003
,,,-4.94300000e-007,0.00000000e+000
,,,-4.94200000e-007,0.00000000e+000
,,,-4.94100000e-007,0.00000000e+000
,,,-4.94000000e-007,0.00000000e+000
,,,-4.93900000e-007,0.00000000e+000
,,,-4.93800000e-007,0.00000000e+000
,,,-4.93700000e-007,-8.00000012e-003
,,,-4.93600000e-007,-8.00000012e-003
,,,-4.93500000e-007,1.60000002e-002
,,,-4.93400000e-007,2.40000004e-002
,,,-4.93300000e-007,0.00000000e+000
,,,-4.93200000e-007,-1.60000002e-002
,,,-4.93100000e-007,8.00000012e-003
,,,-4.93000000e-007,8.00000012e-003
,,,-4.92900000e-007,0.00000000e+000
,,,-4.92800000e-007,8.00000012e-003
,,,-4.92700000e-007,0.00000000e+000
,,,-4.92600000e-007,0.00000000e+000
,,,-4.92500000e-007,8.00000012e-003
,,,-4.92400000e-007,0.00000000e+000
,,,-4.92300000e-007,8.00000012e-003
,,,-4.92200000e-007,8.00000012e-003
,,,-4.92100000e-007,0.00000000e+000
,,,-4.92000000e-007,0.00000000e+000
,,,-4.91900000e-007,0.00000000e+000
,,,-4.91800000e-007,0.00000000e+000
,,,-4.91700000e-007,0.00000000e+000
,,,-4.91600000e-007,0.00000000e+000
,,,-4.91500000e-007,8.00000012e-003
,,,-4.91400000e-007,8.00000012e-003
,,,-4.91300000e-007,0.00000000e+000
,,,-4.91200000e-007,0.00000000e+000
,,,-4.91100000e-007,0.00000000e+000
,,,-4.91000000e-007,0.00000000e+000
,,,-4.90900000e-007,0.00000000e+000
,,,-4.90800000e-007,0.00000000e+000
,,,-4.90700000e-007,0.00000000e+000
,,,-4.90600000e-007,0.00000000e+000
,,,-4.90500000e-007,0.00000000e+000
,,,-4.90400000e-007,0.00000000e+000
,,,-4.90300000e-007,0.00000000e+000
,,,-4.90200000e-007,0.00000000e+000
,,,-4.90100000e-007,0.00000000e+000
,,,-4.90000000e-007,8.00000012e-003
,,,-4.89900000e-007,0.00000000e+000
,,,-4.89800000e-007,-1.60000002e-002
,,,-4.89700000e-007,-8.00000012e-003
,,,-4.89600000e-007,8.00000012e-003
,,,-4.89500000e-007,-8.00000012e-003
,,,-4.89400000e-007,-1.60000002e-002
,,,-4.89300000e-007,0.00000000e+000
,,,-4.89200000e-007,8.00000012e-003
,,,-4.89100000e-007,8.00000012e-003
,,,-4.89000000e-007,8.00000012e-003
,,,-4.88900000e-007,0.00000000e+000
,,,-4.88800000e-007,-1.60000002e-002
,,,-4.88700000e-007,-8.00000012e-003
,,,-4.88600000e-007,8.00000012e-003
,,,-4.88500000e-007,0.00000000e+000
,,,-4.88400000e-007,-8.00000012e-003
,,,-4.88300000e-007,0.00000000e+000
,,,-4.88200000e-007,8.00000012e-003
,,,-4.88100000e-007,1.60000002e-002
,,,-4.88000000e-007,0.00000000e+000
,,,-4.87900000e-007,-1.60000002e-002
,,,-4.87800000e-007,0.00000000e+000
,,,-4.87700000e-007,0.00000000e+000
,,,-4.87600000e-007,-1.60000002e-002
,,,-4.87500000e-007,-8.00000012e-003
,,,-4.87400000e-007,-8.00000012e-003
,,,-4.87300000e-007,0.00000000e+000
,,,-4.87200000e-007,0.00000000e+000
,,,-4.87100000e-007,-8.00000012e-003
,,,-4.87000000e-007,0.00000000e+000
,,,-4.86900000e-007,0.00000000e+000
,,,-4.86800000e-007,8.00000012e-003
,,,-4.86700000e-007,8.00000012e-003
,,,-4.86600000e-007,-1.60000002e-002
,,,-4.86500000e-007,0.00000000e+000
,,,-4.86400000e-007,8.00000012e-003
,,,-4.86300000e-007,-1.60000002e-002
,,,-4.86200000e-007,-8.00000012e-003
,,,-4.86100000e-007,0.00000000e+000
,,,-4.86000000e-007,8.00000012e-003
,,,-4.85900000e-007,8.00000012e-003
,,,-4.85800000e-007,0.00000000e+000
,,,-4.85700000e-007,8.00000012e-003
,,,-4.85600000e-007,0.00000000e+000
,,,-4.85500000e-007,0.00000000e+000
,,,-4.85400000e-007,1.60000002e-002
,,,-4.85300000e-007,-8.00000012e-003
,,,-4.85200000e-007,-8.00000012e-003
,,,-4.85100000e-007,8.00000012e-003
,,,-4.85000000e-007,-8.00000012e-003
,,,-4.84900000e-007,8.00000012e-003
,,,-4.84800000e-007,1.60000002e-002
,,,-4.84700000e-007,8.00000012e-003
,,,-4.84600000e-007,8.00000012e-003
,,,-4.84500000e-007,8.00000012e-003
,,,-4.84400000e-007,-8.00000012e-003
,,,-4.84300000e-007,0.00000000e+000
,,,-4.84200000e-007,0.00000000e+000
,,,-4.84100000e-007,-8.00000012e-003
,,,-4.84000000e-007,8.00000012e-003
,,,-4.83900000e-007,8.00000012e-003
,,,-4.83800000e-007,0.00000000e+000
,,,-4.83700000e-007,8.00000012e-003
,,,-4.83600000e-007,8.00000012e-003
,,,-4.83500000e-007,8.00000012e-003
,,,-4.83400000e-007,8.00000012e-003
,,,-4.83300000e-007,-8.00000012e-003
,,,-4.83200000e-007,-8.00000012e-003
,,,-4.83100000e-007,8.00000012e-003
,,,-4.83000000e-007,0.00000000e+000
,,,-4.82900000e-007,-8.00000012e-003
,,,-4.82800000e-007,8.00000012e-003
,,,-4.82700000e-007,8.00000012e-003
,,,-4.82600000e-007,-8.00000012e-003
,,,-4.82500000e-007,0.00000000e+000
,,,-4.82400000e-007,0.00000000e+000
,,,-4.82300000e-007,0.00000000e+000
,,,-4.82200000e-007,1.60000002e-002
,,,-4.82100000e-007,0.00000000e+000
,,,-4.82000000e-007,0.00000000e+000
,,,-4.81900000e-007,1.60000002e-002
,,,-4.81800000e-007,0.00000000e+000
,,,-4.81700000e-007,-8.00000012e-003
,,,-4.81600000e-007,0.00000000e+000
,,,-4.81500000e-007,0.00000000e+000
,,,-4.81400000e-007,8.00000012e-003
,,,-4.81300000e-007,8.00000012e-003
,,,-4.81200000e-007,-8.00000012e-003
,,,-4.81100000e-007,8.00000012e-003
,,,-4.81000000e-007,1.60000002e-002
,,,-4.80900000e-007,8.00000012e-003
,,,-4.80800000e-007,8.00000012e-003
,,,-4.80700000e-007,0.00000000e+000
,,,-4.80600000e-007,-8.00000012e-003
,,,-4.80500000e-007,1.60000002e-002
,,,-4.80400000e-007,-8.00000012e-003
,,,-4.80300000e-007,0.00000000e+000
,,,-4.80200000e-007,2.40000004e-002
,,,-4.80100000e-007,-8.00000012e-003
,,,-4.80000000e-007,0.00000000e+000
,,,-4.79900000e-007,8.00000012e-003
,,,-4.79800000e-007,-8.00000012e-003
,,,-4.79700000e-007,1.60000002e-002
,,,-4.79600000e-007,0.00000000e+000
,,,-4.79500000e-007,-8.00000012e-003
,,,-4.79400000e-007,8.00000012e-003
,,,-4.79300000e-007,-8.00000012e-003
,,,-4.79200000e-007,-8.00000012e-003
,,,-4.79100000e-007,0.00000000e+000
,,,-4.79000000e-007,0.00000000e+000
,,,-4.78900000e-007,8.00000012e-003
,,,-4.78800000e-007,0.00000000e+000
,,,-4.78700000e-007,0.00000000e+000
,,,-4.78600000e-007,8.00000012e-003
,,,-4.78500000e-007,-8.00000012e-003
,,,-4.78400000e-007,0.00000000e+000
,,,-4.78300000e-007,0.00000000e+000
,,,-4.78200000e-007,-8.00000012e-003
,,,-4.78100000e-007,0.00000000e+000
,,,-4.78000000e-007,0.00000000e+000
,,,-4.77900000e-007,-8.00000012e-003
,,,-4.77800000e-007,0.00000000e+000
,,,-4.77700000e-007,8.00000012e-003
,,,-4.77600000e-007,-1.60000002e-002
,,,-4.77500000e-007,0.00000000e+000
,,,-4.77400000e-007,8.00000012e-003
,,,-4.77300000e-007,0.00000000e+000
,,,-4.77200000e-007,8.00000012e-003
,,,-4.77100000e-007,0.00000000e+000
,,,-4.77000000e-007,-1.60000002e-002
,,,-4.76900000e-007,0.00000000e+000
,,,-4.76800000e-007,0.00000000e+000
,,,-4.76700000e-007,0.00000000e+000
,,,-4.76600000e-007,8.00000012e-003
,,,-4.76500000e-007,0.00000000e+000
,,,-4.76400000e-007,8.00000012e-003
,,,-4.76300000e-007,8.00000012e-003
,,,-4.76200000e-007,0.00000000e+000
,,,-4.76100000e-007,-8.00000012e-003
,,,-4.76000000e-007,0.00000000e+000
,,,-4.75900000e-007,0.00000000e+000
,,,-4.75800000e-007,0.00000000e+000
,,,-4.75700000e-007,0.00000000e+000
,,,-4.75600000e-007,0.00000000e+000
,,,-4.75500000e-007,0.00000000e+000
,,,-4.75400000e-007,8.00000012e-003
,,,-4.75300000e-007,-8.00000012e-003
,,,-4.75200000e-007,8.00000012e-003
,,,-4.75100000e-007,3.20000005e-002
,,,-4.75000000e-007,-8.00000012e-003
,,,-4.74900000e-007,-8.00000012e-003
,,,-4.74800000e-007,8.00000012e-003
,,,-4.74700000e-007,0.00000000e+000
,,,-4.74600000e-007,2.40000004e-002
,,,-4.74500000e-007,0.00000000e+000
,,,-4.74400000e-007,-8.00000012e-003
,,,-4.74300000e-007,2.40000004e-002
,,,-4.74200000e-007,0.00000000e+000
,,,-4.74100000e-007,-2.40000004e-002
,,,-4.74000000e-007,0.00000000e+000
,,,-4.73900000e-007,-8.00000012e-003
,,,-4.73800000e-007,0.00000000e+000
,,,-4.73700000e-007,1.60000002e-002
,,,-4.73600000e-007,-2.40000004e-002
,,,-4.73500000e-007,-2.40000004e-002
,,,-4.73400000e-007,0.00000000e+000
,,,-4.73300000e-007,-1.60000002e-002
,,,-4.73200000e-007,0.00000000e+000
,,,-4.73100000e-007,8.00000012e-003
,,,-4.73000000e-007,0.00000000e+000
,,,-4.72900000e-007,0.00000000e+000
,,,-4.72800000e-007,8.00000012e-003
,,,-4.72700000e-007,-8.00000012e-003
,,,-4.72600000e-007,0.00000000e+000
,,,-4.72500000e-007,8.00000012e-003
,,,-4.72400000e-007,-2.40000004e-002
,,,-4.72300000e-007,-8.00000012e-003
,,,-4.72200000e-007,1.60000002e-002
,,,-4.72100000e-007,-8.00000012e-003
,,,-4.72000000e-007,1.60000002e-002
,,,-4.71900000e-007,0.00000000e+000
,,,-4.71800000e-007,-2.40000004e-002
,,,-4.71700000e-007,0.00000000e+000
,,,-4.71600000e-007,0.00000000e+000
,,,-4.71500000e-007,1.60000002e-002
,,,-4.71400000e-007,-8.00000012e-003
,,,-4.71300000e-007,-1.60000002e-002
,,,-4.71200000e-007,0.00000000e+000
,,,-4.71100000e-007,-1.60000002e-002
,,,-4.71000000e-007,-8.00000012e-003
,,,-4.70900000e-007,0.00000000e+000
,,,-4.70800000e-007,0.00000000e+000
,,,-4.70700000e-007,1.60000002e-002
,,,-4.70600000e-007,-8.00000012e-003
,,,-4.70500000e-007,-8.00000012e-003
,,,-4.70400000e-007,2.40000004e-002
,,,-4.70300000e-007,8.00000012e-003
,,,-4.70200000e-007,0.00000000e+000
,,,-4.70100000e-007,8.00000012e-003
,,,-4.70000000e-007,-8.00000012e-003
,,,-4.69900000e-007,0.00000000e+000
,,,-4.69800000e-007,-8.00000012e-003
,,,-4.69700000e-007,-3.20000005e-002
,,,-4.69600000e-007,-8.00000012e-003
,,,-4.69500000e-007,8.00000012e-003
,,,-4.69400000e-007,0.00000000e+000
,,,-4.69300000e-007,0.00000000e+000
,,,-4.69200000e-007,-1.60000002e-002
,,,-4.69100000e-007,8.00000012e-003
,,,-4.69000000e-007,0.00000000e+000
,,,-4.68900000e-007,-2.40000004e-002
,,,-4.68800000e-007,1.60000002e-002
,,,-4.68700000e-007,0.00000000e+000
,,,-4.68600000e-007,-8.00000012e-003
,,,-4.68500000e-007,1.60000002e-002
,,,-4.68400000e-007,-8.00000012e-003
,,,-4.68300000e-007,0.00000000e+000
,,,-4.68200000e-007,0.00000000e+000
,,,-4.68100000e-007,-1.60000002e-002
,,,-4.68000000e-007,8.00000012e-003
,,,-4.67900000e-007,0.00000000e+000
,,,-4.67800000e-007,8.00000012e-003
,,,-4.67700000e-007,1.60000002e-002
,,,-4.67600000e-007,8.00000012e-003
,,,-4.67500000e-007,1.60000002e-002
,,,-4.67400000e-007,-8.00000012e-003
,,,-4.67300000e-007,-1.60000002e-002
,,,-4.67200000e-007,0.00000000e+000
,,,-4.67100000e-007,-1.60000002e-002
,,,-4.67000000e-007,0.00000000e+000
,,,-4.66900000e-007,1.60000002e-002
,,,-4.66800000e-007,8.00000012e-003
,,,-4.66700000e-007,0.00000000e+000
,,,-4.66600000e-007,-8.00000012e-003
,,,-4.66500000e-007,-8.00000012e-003
,,,-4.66400000e-007,0.00000000e+000
,,,-4.66300000e-007,-1.60000002e-002
,,,-4.66200000e-007,-8.00000012e-003
,,,-4.66100000e-007,1.60000002e-002
,,,-4.66000000e-007,1.60000002e-002
,,,-4.65900000e-007,0.00000000e+000
,,,-4.65800000e-007,1.60000002e-002
,,,-4.65700000e-007,0.00000000e+000
,,,-4.65600000e-007,-8.00000012e-003
,,,-4.65500000e-007,2.40000004e-002
,,,-4.65400000e-007,1.60000002e-002
,,,-4.65300000e-007,-8.00000012e-003
,,,-4.65200000e-007,1.60000002e-002
,,,-4.65100000e-007,0.00000000e+000
,,,-4.65000000e-007,-8.00000012e-003
,,,-4.64900000e-007,1.60000002e-002
,,,-4.64800000e-007,0.00000000e+000
,,,-4.64700000e-007,-8.00000012e-003
,,,-4.64600000e-007,0.00000000e+000
,,,-4.64500000e-007,0.00000000e+000
,,,-4.64400000e-007,0.00000000e+000
,,,-4.64300000e-007,0.00000000e+000
,,,-4.64200000e-007,0.00000000e+000
,,,-4.64100000e-007,8.00000012e-003
,,,-4.64000000e-007,8.00000012e-003
,,,-4.63900000e-007,-8.00000012e-003
,,,-4.63800000e-007,-8.00000012e-003
,,,-4.63700000e-007,0.00000000e+000
,,,-4.63600000e-007,-8.00000012e-003
,,,-4.63500000e-007,0.00000000e+000
,,,-4.63400000e-007,0.00000000e+000
,,,-4.63300000e-007,-1.60000002e-002
,,,-4.63200000e-007,0.00000000e+000
,,,-4.63100000e-007,0.00000000e+000
,,,-4.63000000e-007,-8.00000012e-003
,,,-4.62900000e-007,0.00000000e+000
,,,-4.62800000e-007,-8.00000012e-003
,,,-4.62700000e-007,0.00000000e+000
,,,-4.62600000e-007,0.00000000e+000
,,,-4.62500000e-007,0.00000000e+000
,,,-4.62400000e-007,0.00000000e+000
,,,-4.62300000e-007,0.00000000e+000
,,,-4.62200000e-007,0.00000000e+000
,,,-4.62100000e-007,-8.00000012e-003
,,,-4.62000000e-007,-8.00000012e-003
,,,-4.61900000e-007,0.00000000e+000
,,,-4.61800000e-007,8.00000012e-003
,,,-4.61700000e-007,2.40000004e-002
,,,-4.61600000e-007,3.20000005e-002
,,,-4.61500000e-007,8.00000012e-003
,,,-4.61400000e-007,-8.00000012e-003
,,,-4.61300000e-007,0.00000000e+000
,,,-4.61200000e-007,0.00000000e+000
,,,-4.61100000e-007,0.00000000e+000
,,,-4.61000000e-007,0.00000000e+000
,,,-4.60900000e-007,0.00000000e+000
,,,-4.60800000e-007,0.00000000e+000
,,,-4.60700000e-007,8.00000012e-003
,,,-4.60600000e-007,1.60000002e-002
,,,-4.60500000e-007,-1.60000002e-002
,,,-4.60400000e-007,-8.00000012e-003
,,,-4.60300000e-007,3.20000005e-002
,,,-4.60200000e-007,0.00000000e+000
,,,-4.60100000e-007,-1.60000002e-002
,,,-4.60000000e-007,8.00000012e-003
,,,-4.59900000e-007,-1.60000002e-002
,,,-4.59800000e-007,8.00000012e-003
,,,-4.59700000e-007,2.40000004e-002
,,,-4.59600000e-007,0.00000000e+000
,,,-4.59500000e-007,1.60000002e-002
,,,-4.59400000e-007,0.00000000e+000
,,,-4.59300000e-007,-8.00000012e-003
,,,-4.59200000e-007,8.00000012e-003
,,,-4.59100000e-007,-1.60000002e-002
,,,-4.59000000e-007,-1.60000002e-002
,,,-4.58900000e-007,8.00000012e-003
,,,-4.58800000e-007,-8.00000012e-003
,,,-4.58700000e-007,-8.00000012e-003
,,,-4.58600000e-007,0.00000000e+000
,,,-4.58500000e-007,0.00000000e+000
,,,-4.58400000e-007,0.00000000e+000
,,,-4.58300000e-007,-8.00000012e-003
,,,-4.58200000e-007,-8.00000012e-003
,,,-4.58100000e-007,-8.00000012e-003
,,,-4.58000000e-007,0.00000000e+000
,,,-4.57900000e-007,8.00000012e-003
,,,-4.57800000e-007,0.00000000e+000
,,,-4.57700000e-007,0.00000000e+000
,,,-4.57600000e-007,8.00000012e-003
,,,-4.57500000e-007,0.00000000e+000
,,,-4.57400000e-007,0.00000000e+000
,,,-4.57300000e-007,-8.00000012e-003
,,,-4.57200000e-007,0.00000000e+000
,,,-4.57100000e-007,0.00000000e+000
,,,-4.57000000e-007,0.00000000e+000
,,,-4.56900000e-007,0.00000000e+000
,,,-4.56800000e-007,0.00000000e+000
,,,-4.56700000e-007,8.00000012e-003
,,,-4.56600000e-007,0.00000000e+000
,,,-4.56500000e-007,-1.60000002e-002
,,,-4.56400000e-007,-8.00000012e-003
,,,-4.56300000e-007,0.00000000e+000
,,,-4.56200000e-007,0.00000000e+000
,,,-4.56100000e-007,-8.00000012e-003
,,,-4.56000000e-007,0.00000000e+000
,,,-4.55900000e-007,8.00000012e-003
,,,-4.55800000e-007,-8.00000012e-003
,,,-4.55700000e-007,8.00000012e-003
,,,-4.55600000e-007,8.00000012e-003
,,,-4.55500000e-007,0.00000000e+000
