scope-analysis/2024-07-03_fast_scope/cav1_average.csv

"Record Length",100000,"Points",-1.02000000e-006,-2.34374607e-005
"Sample Interval",1.00000000e-010,s,-1.01990000e-006,8.90625438e-005
"Trigger Point",10200,"Samples",-1.01980000e-006,-5.57812482e-004
"Trigger Time",0.00000000e+000,s,-1.01970000e-006,-6.18749984e-004
"",,,-1.01960000e-006,-6.74999987e-004
"Horizontal Offset",-1.02000000e-006,s,-1.01950000e-006,-9.09374996e-004
,,,-1.01940000e-006,-8.57812494e-004
,,,-1.01930000e-006,-1.35937465e-004
,,,-1.01920000e-006,-4.21874614e-005
,,,-1.01910000e-006,-3.04687472e-004
,,,-1.01900000e-006,3.75000417e-005
,,,-1.01890000e-006,-6.56249624e-005
,,,-1.01880000e-006,-9.46874997e-004
,,,-1.01870000e-006,-5.10937480e-004
,,,-1.01860000e-006,4.02331367e-011
,,,-1.01850000e-006,-8.81249995e-004
,,,-1.01840000e-006,-1.22812501e-003
,,,-1.01830000e-006,-4.64062478e-004
,,,-1.01820000e-006,-5.85937483e-004
,,,-1.01810000e-006,-7.64062490e-004
,,,-1.01800000e-006,1.82812547e-004
,,,-1.01790000e-006,-2.71874971e-004
,,,-1.01780000e-006,-9.70312498e-004
,,,-1.01770000e-006,-5.01562480e-004
,,,-1.01760000e-006,-3.84374975e-004
,,,-1.01750000e-006,-7.78124991e-004
,,,-1.01740000e-006,-3.98437476e-004
,,,-1.01730000e-006,-1.26562465e-004
,,,-1.01720000e-006,1.17187545e-004
,,,-1.01710000e-006,-3.89062475e-004
,,,-1.01700000e-006,-9.70312498e-004
,,,-1.01690000e-006,-1.05937500e-003
,,,-1.01680000e-006,-1.92187467e-004
,,,-1.01670000e-006,3.18750053e-004
,,,-1.01660000e-006,-5.29687481e-004
,,,-1.01650000e-006,-6.18749984e-004
,,,-1.01640000e-006,-4.40624977e-004
,,,-1.01630000e-006,-3.42187473e-004
,,,-1.01620000e-006,-5.39062481e-004
,,,-1.01610000e-006,-3.74999975e-004
,,,-1.01600000e-006,-2.39062469e-004
,,,-1.01590000e-006,-3.18749972e-004
,,,-1.01580000e-006,-7.73437491e-004
,,,-1.01570000e-006,-8.43749993e-004
,,,-1.01560000e-006,-3.18749972e-004
,,,-1.01550000e-006,-2.48437470e-004
,,,-1.01540000e-006,-8.24999993e-004
,,,-1.01530000e-006,-6.23437485e-004
,,,-1.01520000e-006,-1.17187464e-004
,,,-1.01510000e-006,-9.28124997e-004
,,,-1.01500000e-006,-1.73437467e-004
,,,-1.01490000e-006,3.70312555e-004
,,,-1.01480000e-006,-9.79687499e-004
,,,-1.01470000e-006,-8.85937495e-004
,,,-1.01460000e-006,-5.01562480e-004
,,,-1.01450000e-006,-4.96874980e-004
,,,-1.01440000e-006,-5.43749981e-004
,,,-1.01430000e-006,-4.82812479e-004
,,,-1.01420000e-006,-1.07812464e-004
,,,-1.01410000e-006,-9.37499635e-005
,,,-1.01400000e-006,-2.57812470e-004
,,,-1.01390000e-006,1.87500410e-005
,,,-1.01380000e-006,-5.43749981e-004
,,,-1.01370000e-006,-7.68749990e-004
,,,-1.01360000e-006,-2.95312472e-004
,,,-1.01350000e-006,-6.93749987e-004
,,,-1.01340000e-006,-8.53124994e-004
,,,-1.01330000e-006,-3.14062472e-004
,,,-1.01320000e-006,-1.12968750e-003
,,,-1.01310000e-006,-4.82812479e-004
,,,-1.01300000e-006,7.50000432e-005
,,,-1.01290000e-006,-3.23437473e-004
,,,-1.01280000e-006,-1.96874968e-004
,,,-1.01270000e-006,4.64062559e-004
,,,-1.01260000e-006,1.87500410e-005
,,,-1.01250000e-006,-1.15781251e-003
,,,-1.01240000e-006,-5.71874982e-004
,,,-1.01230000e-006,-3.84374975e-004
,,,-1.01220000e-006,-9.37499997e-004
,,,-1.01210000e-006,-3.28124973e-004
,,,-1.01200000e-006,-4.12499976e-004
,,,-1.01190000e-006,-8.53124994e-004
,,,-1.01180000e-006,-1.18125001e-003
,,,-1.01170000e-006,-1.01250000e-003
,,,-1.01160000e-006,-5.10937480e-004
,,,-1.01150000e-006,-5.95312483e-004
,,,-1.01140000e-006,-6.93749987e-004
,,,-1.01130000e-006,-1.96874968e-004
,,,-1.01120000e-006,2.34375412e-005
,,,-1.01110000e-006,-1.21874965e-004
,,,-1.01100000e-006,-9.28124997e-004
,,,-1.01090000e-006,-5.67187482e-004
,,,-1.01080000e-006,1.45312546e-004
,,,-1.01070000e-006,-1.06406250e-003
,,,-1.01060000e-006,-1.58437502e-003
,,,-1.01050000e-006,-1.49999966e-004
,,,-1.01040000e-006,-5.53124982e-004
,,,-1.01030000e-006,-2.39062469e-004
,,,-1.01020000e-006,5.62500425e-005
,,,-1.01010000e-006,-4.73437479e-004
,,,-1.01000000e-006,-3.98437476e-004
,,,-1.00990000e-006,-6.89062487e-004
,,,-1.00980000e-006,-8.34374993e-004
,,,-1.00970000e-006,-5.67187482e-004
,,,-1.00960000e-006,-4.78124979e-004
,,,-1.00950000e-006,-4.21874977e-004
,,,-1.00940000e-006,-5.15624618e-005
,,,-1.00930000e-006,1.82812547e-004
,,,-1.00920000e-006,-4.21874977e-004
,,,-1.00910000e-006,-9.74999999e-004
,,,-1.00900000e-006,-8.99999996e-004
,,,-1.00890000e-006,-3.18749972e-004
,,,-1.00880000e-006,-2.20312469e-004
,,,-1.00870000e-006,-5.24999981e-004
,,,-1.00860000e-006,-5.29687481e-004
,,,-1.00850000e-006,-8.62499994e-004
,,,-1.00840000e-006,-8.15624992e-004
,,,-1.00830000e-006,-7.54687490e-004
,,,-1.00820000e-006,-5.81249983e-004
,,,-1.00810000e-006,3.75000417e-005
,,,-1.00800000e-006,-1.26562465e-004
,,,-1.00790000e-006,-3.70312474e-004
,,,-1.00780000e-006,9.37504061e-006
,,,-1.00770000e-006,-1.03124964e-004
,,,-1.00760000e-006,-2.81249971e-004
,,,-1.00750000e-006,6.09375427e-005
,,,-1.00740000e-006,-2.34374969e-004
,,,-1.00730000e-006,-3.46874974e-004
,,,-1.00720000e-006,-4.59374978e-004
,,,-1.00710000e-006,-5.62499982e-004
,,,-1.00700000e-006,-6.18749984e-004
,,,-1.00690000e-006,-8.76562495e-004
,,,-1.00680000e-006,-9.51562498e-004
,,,-1.00670000e-006,-5.81249983e-004
,,,-1.00660000e-006,-8.99999996e-004
,,,-1.00650000e-006,-9.42187497e-004
,,,-1.00640000e-006,-5.15624980e-004
,,,-1.00630000e-006,9.84375441e-005
,,,-1.00620000e-006,3.75000417e-005
,,,-1.00610000e-006,-7.03124988e-004
,,,-1.00600000e-006,-8.29687493e-004
,,,-1.00590000e-006,7.50000432e-005
,,,-1.00580000e-006,3.14062553e-004
,,,-1.00570000e-006,-5.48437482e-004
,,,-1.00560000e-006,-9.23437496e-004
,,,-1.00550000e-006,-5.90624983e-004
,,,-1.00540000e-006,-6.51562486e-004
,,,-1.00530000e-006,-9.42187497e-004
,,,-1.00520000e-006,-3.23437473e-004
,,,-1.00510000e-006,-2.48437470e-004
,,,-1.00500000e-006,-7.73437491e-004
,,,-1.00490000e-006,-1.08281250e-003
,,,-1.00480000e-006,-8.62499994e-004
,,,-1.00470000e-006,-2.20312469e-004
,,,-1.00460000e-006,9.84375441e-005
,,,-1.00450000e-006,-3.46874974e-004
,,,-1.00440000e-006,-2.34374969e-004
,,,-1.00430000e-006,-1.78124967e-004
,,,-1.00420000e-006,-5.06249980e-004
,,,-1.00410000e-006,1.50000046e-004
,,,-1.00400000e-006,1.96875048e-004
,,,-1.00390000e-006,9.84375441e-005
,,,-1.00380000e-006,1.03125044e-004
,,,-1.00370000e-006,6.56250428e-005
,,,-1.00360000e-006,-1.03124964e-004
,,,-1.00350000e-006,-2.62499970e-004
,,,-1.00340000e-006,-2.90624971e-004
,,,-1.00330000e-006,-8.81249995e-004
,,,-1.00320000e-006,-7.54687490e-004
,,,-1.00310000e-006,1.35937546e-004
,,,-1.00300000e-006,-3.28124611e-005
,,,-1.00290000e-006,-1.09218750e-003
,,,-1.00280000e-006,-7.87499991e-004
,,,-1.00270000e-006,-7.49999990e-004
,,,-1.00260000e-006,-6.89062487e-004
,,,-1.00250000e-006,-7.54687490e-004
,,,-1.00240000e-006,-1.02656250e-003
,,,-1.00230000e-006,-1.73437467e-004
,,,-1.00220000e-006,-8.90624633e-005
,,,-1.00210000e-006,-4.31249977e-004
,,,-1.00200000e-006,-1.54687466e-004
,,,-1.00190000e-006,-7.49999990e-004
,,,-1.00180000e-006,-9.42187497e-004
,,,-1.00170000e-006,-6.93749987e-004
,,,-1.00160000e-006,-5.99999984e-004
,,,-1.00150000e-006,-2.29687469e-004
,,,-1.00140000e-006,-1.40624603e-005
,,,-1.00130000e-006,-3.14062472e-004
,,,-1.00120000e-006,-5.48437482e-004
,,,-1.00110000e-006,-1.21874965e-004
,,,-1.00100000e-006,-2.95312472e-004
,,,-1.00090000e-006,-6.60937486e-004
,,,-1.00080000e-006,-5.62499982e-004
,,,-1.00070000e-006,-4.03124976e-004
,,,-1.00060000e-006,1.87500410e-005
,,,-1.00050000e-006,-8.24999993e-004
,,,-1.00040000e-006,-1.35000001e-003
,,,-1.00030000e-006,-1.16250001e-003
,,,-1.00020000e-006,-1.14375001e-003
,,,-1.00010000e-006,-8.43749993e-004
,,,-1.00000000e-006,-3.56249974e-004
,,,-9.99900000e-007,-6.70312486e-004
,,,-9.99800000e-007,-5.85937483e-004
,,,-9.99700000e-007,-2.24999969e-004
,,,-9.99600000e-007,-5.15624618e-005
,,,-9.99500000e-007,-5.57812482e-004
,,,-9.99400000e-007,-4.40624977e-004
,,,-9.99300000e-007,-4.26562477e-004
,,,-9.99200000e-007,-5.53124982e-004
,,,-9.99100000e-007,-6.70312486e-004
,,,-9.99000000e-007,-1.07812500e-003
,,,-9.98900000e-007,-3.98437476e-004
,,,-9.98800000e-007,-3.74999613e-005
,,,-9.98700000e-007,2.76562551e-004
,,,-9.98600000e-007,-2.57812470e-004
,,,-9.98500000e-007,-5.43749981e-004
,,,-9.98400000e-007,-1.40624603e-005
,,,-9.98300000e-007,-5.57812482e-004
,,,-9.98200000e-007,-1.45781252e-003
,,,-9.98100000e-007,-7.07812488e-004
,,,-9.98000000e-007,-8.67187494e-004
,,,-9.97900000e-007,-8.10937492e-004
,,,-9.97800000e-007,4.07812556e-004
,,,-9.97700000e-007,1.12500045e-004
,,,-9.97600000e-007,-1.92187467e-004
,,,-9.97500000e-007,-2.85937471e-004
,,,-9.97400000e-007,-5.95312483e-004
,,,-9.97300000e-007,-7.12499988e-004
,,,-9.97200000e-007,-7.73437491e-004
,,,-9.97100000e-007,-1.17187464e-004
,,,-9.97000000e-007,-2.81249609e-005
,,,-9.96900000e-007,-8.43749993e-004
,,,-9.96800000e-007,1.87500048e-004
,,,-9.96700000e-007,2.20312549e-004
,,,-9.96600000e-007,-6.89062487e-004
,,,-9.96500000e-007,-8.34374993e-004
,,,-9.96400000e-007,-5.24999981e-004
,,,-9.96300000e-007,-4.21874977e-004
,,,-9.96200000e-007,-5.62499620e-005
,,,-9.96100000e-007,-2.95312472e-004
,,,-9.96000000e-007,-5.34374981e-004
,,,-9.95900000e-007,-4.26562477e-004
,,,-9.95800000e-007,-5.48437482e-004
,,,-9.95700000e-007,-6.09374984e-004
,,,-9.95600000e-007,-4.12499976e-004
,,,-9.95500000e-007,-2.34374969e-004
,,,-9.95400000e-007,-3.89062475e-004
,,,-9.95300000e-007,-5.67187482e-004
,,,-9.95200000e-007,-6.70312486e-004
,,,-9.95100000e-007,-5.10937480e-004
,,,-9.95000000e-007,-2.62499970e-004
,,,-9.94900000e-007,-8.29687493e-004
,,,-9.94800000e-007,-8.90624995e-004
,,,-9.94700000e-007,-3.84374975e-004
,,,-9.94600000e-007,-3.51562474e-004
,,,-9.94500000e-007,4.68750421e-005
,,,-9.94400000e-007,1.50000046e-004
,,,-9.94300000e-007,-5.71874982e-004
,,,-9.94200000e-007,-2.90624971e-004
,,,-9.94100000e-007,-6.60937486e-004
,,,-9.94000000e-007,-1.35937501e-003
,,,-9.93900000e-007,-1.14375001e-003
,,,-9.93800000e-007,-7.78124991e-004
,,,-9.93700000e-007,-5.57812482e-004
,,,-9.93600000e-007,-1.49999966e-004
,,,-9.93500000e-007,-3.79687475e-004
,,,-9.93400000e-007,-8.29687493e-004
,,,-9.93300000e-007,-5.95312483e-004
,,,-9.93200000e-007,-3.74999975e-004
,,,-9.93100000e-007,-5.34374981e-004
,,,-9.93000000e-007,-8.43749993e-004
,,,-9.92900000e-007,-9.84374999e-004
,,,-9.92800000e-007,-4.68749978e-004
,,,-9.92700000e-007,-9.37499997e-004
,,,-9.92600000e-007,-1.17656251e-003
,,,-9.92500000e-007,-1.45312466e-004
,,,-9.92400000e-007,-2.15624968e-004
,,,-9.92300000e-007,-1.64062466e-004
,,,-9.92200000e-007,-2.34374969e-004
,,,-9.92100000e-007,-1.20937501e-003
,,,-9.92000000e-007,-8.43749993e-004
,,,-9.91900000e-007,-3.70312474e-004
,,,-9.91800000e-007,-2.62499970e-004
,,,-9.91700000e-007,-2.43749969e-004
,,,-9.91600000e-007,-4.82812479e-004
,,,-9.91500000e-007,-5.85937483e-004
,,,-9.91400000e-007,-5.90624983e-004
,,,-9.91300000e-007,-8.90624995e-004
,,,-9.91200000e-007,-6.04687484e-004
,,,-9.91100000e-007,-1.14843751e-003
,,,-9.91000000e-007,-7.82812491e-004
,,,-9.90900000e-007,6.56250428e-005
,,,-9.90800000e-007,-6.32812485e-004
,,,-9.90700000e-007,-8.43749993e-004
,,,-9.90600000e-007,-5.71874982e-004
,,,-9.90500000e-007,-8.20312492e-004
,,,-9.90400000e-007,-4.12499976e-004
,,,-9.90300000e-007,3.04687552e-004
,,,-9.90200000e-007,1.07812545e-004
,,,-9.90100000e-007,-4.03124976e-004
,,,-9.90000000e-007,-4.82812479e-004
,,,-9.89900000e-007,-5.90624983e-004
,,,-9.89800000e-007,-9.74999999e-004
,,,-9.89700000e-007,-8.24999993e-004
,,,-9.89600000e-007,-5.15624618e-005
,,,-9.89500000e-007,2.34375050e-004
,,,-9.89400000e-007,-4.92187479e-004
,,,-9.89300000e-007,-1.06875000e-003
,,,-9.89200000e-007,-7.07812488e-004
,,,-9.89100000e-007,-4.31249977e-004
,,,-9.89000000e-007,-7.03124988e-004
,,,-9.88900000e-007,-4.68749616e-005
,,,-9.88800000e-007,2.29687549e-004
,,,-9.88700000e-007,-7.82812491e-004
,,,-9.88600000e-007,-1.12968750e-003
,,,-9.88500000e-007,-4.82812479e-004
,,,-9.88400000e-007,-7.87499991e-004
,,,-9.88300000e-007,-1.05937500e-003
,,,-9.88200000e-007,-5.95312483e-004
,,,-9.88100000e-007,-4.68749978e-004
,,,-9.88000000e-007,-3.28124973e-004
,,,-9.87900000e-007,-2.29687469e-004
,,,-9.87800000e-007,-5.01562480e-004
,,,-9.87700000e-007,-8.90624633e-005
,,,-9.87600000e-007,1.92187548e-004
,,,-9.87500000e-007,-9.37499635e-005
,,,-9.87400000e-007,-6.89062487e-004
,,,-9.87300000e-007,-4.49999978e-004
,,,-9.87200000e-007,-3.89062475e-004
,,,-9.87100000e-007,-6.28124985e-004
,,,-9.87000000e-007,-6.09374984e-004
,,,-9.86900000e-007,-6.56249986e-004
,,,-9.86800000e-007,-8.43749993e-004
,,,-9.86700000e-007,-6.70312486e-004
,,,-9.86600000e-007,-4.92187479e-004
,,,-9.86500000e-007,-3.79687475e-004
,,,-9.86400000e-007,4.35937558e-004
,,,-9.86300000e-007,-4.68745995e-006
,,,-9.86200000e-007,-4.35937477e-004
,,,-9.86100000e-007,-5.24999981e-004
,,,-9.86000000e-007,-1.31249965e-004
,,,-9.85900000e-007,-8.06249992e-004
,,,-9.85800000e-007,-7.73437491e-004
,,,-9.85700000e-007,-6.65624986e-004
,,,-9.85600000e-007,-1.11093750e-003
,,,-9.85500000e-007,-6.04687484e-004
,,,-9.85400000e-007,1.21875045e-004
,,,-9.85300000e-007,-4.45312477e-004
,,,-9.85200000e-007,-5.95312483e-004
,,,-9.85100000e-007,-6.09374622e-005
,,,-9.85000000e-007,-2.29687469e-004
,,,-9.84900000e-007,-4.96874980e-004
,,,-9.84800000e-007,-4.64062478e-004
,,,-9.84700000e-007,-6.60937486e-004
,,,-9.84600000e-007,-1.02187500e-003
,,,-9.84500000e-007,-7.21874988e-004
,,,-9.84400000e-007,-8.62499994e-004
,,,-9.84300000e-007,-4.35937477e-004
,,,-9.84200000e-007,-4.87499979e-004
,,,-9.84100000e-007,-6.74999987e-004
,,,-9.84000000e-007,-3.93749975e-004
,,,-9.83900000e-007,-4.59374978e-004
,,,-9.83800000e-007,-6.32812485e-004
,,,-9.83700000e-007,-5.90624983e-004
,,,-9.83600000e-007,-7.35937489e-004
,,,-9.83500000e-007,-4.68749978e-004
,,,-9.83400000e-007,-6.89062487e-004
,,,-9.83300000e-007,-1.32187501e-003
,,,-9.83200000e-007,-7.31249989e-004
,,,-9.83100000e-007,-2.90624971e-004
,,,-9.83000000e-007,-9.84374999e-004
,,,-9.82900000e-007,-8.24999993e-004
,,,-9.82800000e-007,-2.67187470e-004
,,,-9.82700000e-007,-8.67187494e-004
,,,-9.82600000e-007,-1.22343751e-003
,,,-9.82500000e-007,-5.53124982e-004
,,,-9.82400000e-007,-5.90624983e-004
,,,-9.82300000e-007,-1.28906251e-003
,,,-9.82200000e-007,-7.40624989e-004
,,,-9.82100000e-007,9.84375441e-005
,,,-9.82000000e-007,-2.71874971e-004
,,,-9.81900000e-007,-7.87499991e-004
,,,-9.81800000e-007,-8.71874994e-004
,,,-9.81700000e-007,-6.37499985e-004
,,,-9.81600000e-007,-5.20312480e-004
,,,-9.81500000e-007,-2.29687469e-004
,,,-9.81400000e-007,2.71875051e-004
,,,-9.81300000e-007,-3.70312474e-004
,,,-9.81200000e-007,-9.18749996e-004
,,,-9.81100000e-007,4.21875419e-005
,,,-9.81000000e-007,1.31250045e-004
,,,-9.80900000e-007,-6.14062484e-004
,,,-9.80800000e-007,-6.28124985e-004
,,,-9.80700000e-007,-4.07812476e-004
,,,-9.80600000e-007,3.46875054e-004
,,,-9.80500000e-007,3.32812553e-004
,,,-9.80400000e-007,-6.04687484e-004
,,,-9.80300000e-007,-5.39062481e-004
,,,-9.80200000e-007,-6.09374984e-004
,,,-9.80100000e-007,-7.03124988e-004
,,,-9.80000000e-007,-6.51562486e-004
,,,-9.79900000e-007,-4.54687478e-004
,,,-9.79800000e-007,-5.95312483e-004
,,,-9.79700000e-007,-4.96874980e-004
,,,-9.79600000e-007,-8.10937492e-004
,,,-9.79500000e-007,-4.92187479e-004
,,,-9.79400000e-007,-1.45312466e-004
,,,-9.79300000e-007,-7.49999627e-005
,,,-9.79200000e-007,-6.93749987e-004
,,,-9.79100000e-007,-1.16718751e-003
,,,-9.79000000e-007,-2.01562468e-004
,,,-9.78900000e-007,-2.34374969e-004
,,,-9.78800000e-007,-6.28124985e-004
,,,-9.78700000e-007,-1.31249965e-004
,,,-9.78600000e-007,-2.29687469e-004
,,,-9.78500000e-007,-5.76562483e-004
,,,-9.78400000e-007,-7.49999627e-005
,,,-9.78300000e-007,7.50000432e-005
,,,-9.78200000e-007,-3.65624974e-004
,,,-9.78100000e-007,-9.42187497e-004
,,,-9.78000000e-007,-7.21874988e-004
,,,-9.77900000e-007,-5.24999981e-004
,,,-9.77800000e-007,-8.57812494e-004
,,,-9.77700000e-007,-3.89062475e-004
,,,-9.77600000e-007,-3.14062472e-004
,,,-9.77500000e-007,-1.21874965e-004
,,,-9.77400000e-007,-3.14062472e-004
,,,-9.77300000e-007,-5.15624980e-004
,,,-9.77200000e-007,-8.10937492e-004
,,,-9.77100000e-007,-2.39062469e-004
,,,-9.77000000e-007,-2.76562471e-004
,,,-9.76900000e-007,-6.93749987e-004
,,,-9.76800000e-007,-2.57812470e-004
,,,-9.76700000e-007,-4.68749616e-005
,,,-9.76600000e-007,-3.70312474e-004
,,,-9.76500000e-007,-3.70312474e-004
,,,-9.76400000e-007,-4.35937477e-004
,,,-9.76300000e-007,-5.20312480e-004
,,,-9.76200000e-007,-1.15781251e-003
,,,-9.76100000e-007,-6.32812485e-004
,,,-9.76000000e-007,-4.68745995e-006
,,,-9.75900000e-007,-2.76562471e-004
,,,-9.75800000e-007,-2.81249971e-004
,,,-9.75700000e-007,-2.99999972e-004
,,,-9.75600000e-007,-8.15624992e-004
,,,-9.75500000e-007,-9.89062499e-004
,,,-9.75400000e-007,-9.28124997e-004
,,,-9.75300000e-007,-7.73437491e-004
,,,-9.75200000e-007,-9.14062496e-004
,,,-9.75100000e-007,-8.29687493e-004
,,,-9.75000000e-007,-5.62499982e-004
,,,-9.74900000e-007,-9.70312498e-004
,,,-9.74800000e-007,-8.06249992e-004
,,,-9.74700000e-007,-2.67187470e-004
,,,-9.74600000e-007,-7.26562489e-004
,,,-9.74500000e-007,-3.46874974e-004
,,,-9.74400000e-007,-9.46874997e-004
,,,-9.74300000e-007,-1.05000000e-003
,,,-9.74200000e-007,-5.20312480e-004
,,,-9.74100000e-007,-2.29687469e-004
,,,-9.74000000e-007,-4.68745995e-006
,,,-9.73900000e-007,-5.81249983e-004
,,,-9.73800000e-007,-8.95312495e-004
,,,-9.73700000e-007,4.02331367e-011
,,,-9.73600000e-007,-1.87499967e-004
,,,-9.73500000e-007,-6.32812485e-004
,,,-9.73400000e-007,-2.43749969e-004
,,,-9.73300000e-007,-8.57812494e-004
,,,-9.73200000e-007,-1.00781250e-003
,,,-9.73100000e-007,-3.56249974e-004
,,,-9.73000000e-007,-5.29687481e-004
,,,-9.72900000e-007,-4.17187476e-004
,,,-9.72800000e-007,-6.04687484e-004
,,,-9.72700000e-007,-9.37499997e-004
,,,-9.72600000e-007,-1.08750000e-003
,,,-9.72500000e-007,-6.98437488e-004
,,,-9.72400000e-007,-5.15624980e-004
,,,-9.72300000e-007,-6.09374984e-004
,,,-9.72200000e-007,-7.17187488e-004
,,,-9.72100000e-007,-8.15624992e-004
,,,-9.72000000e-007,-1.92187467e-004
,,,-9.71900000e-007,-3.74999613e-005
,,,-9.71800000e-007,-4.78124979e-004
,,,-9.71700000e-007,-6.23437485e-004
,,,-9.71600000e-007,-8.34374993e-004
,,,-9.71500000e-007,-7.35937489e-004
,,,-9.71400000e-007,-2.39062469e-004
,,,-9.71300000e-007,-2.81249971e-004
,,,-9.71200000e-007,-8.81249995e-004
,,,-9.71100000e-007,-9.93749999e-004
,,,-9.71000000e-007,-6.84374987e-004
,,,-9.70900000e-007,-4.82812479e-004
,,,-9.70800000e-007,-6.14062484e-004
,,,-9.70700000e-007,-2.57812470e-004
,,,-9.70600000e-007,-4.40624977e-004
,,,-9.70500000e-007,-4.68749978e-004
,,,-9.70400000e-007,-2.34374969e-004
,,,-9.70300000e-007,-1.03124964e-004
,,,-9.70200000e-007,-2.71874971e-004
,,,-9.70100000e-007,-5.62499620e-005
,,,-9.70000000e-007,-4.12499976e-004
,,,-9.69900000e-007,-9.32812497e-004
,,,-9.69800000e-007,-4.49999978e-004
,,,-9.69700000e-007,-4.26562477e-004
,,,-9.69600000e-007,-7.73437491e-004
,,,-9.69500000e-007,-1.35937465e-004
,,,-9.69400000e-007,-3.46874974e-004
,,,-9.69300000e-007,-4.45312477e-004
,,,-9.69200000e-007,1.31250045e-004
,,,-9.69100000e-007,-3.46874974e-004
,,,-9.69000000e-007,-6.79687487e-004
,,,-9.68900000e-007,-9.89062499e-004
,,,-9.68800000e-007,-1.12500000e-003
,,,-9.68700000e-007,-1.06406250e-003
,,,-9.68600000e-007,-1.03593750e-003
,,,-9.68500000e-007,-2.90624971e-004
,,,-9.68400000e-007,-4.54687478e-004
,,,-9.68300000e-007,-8.01562492e-004
,,,-9.68200000e-007,-2.53124970e-004
,,,-9.68100000e-007,-4.31249977e-004
,,,-9.68000000e-007,-6.56249986e-004
,,,-9.67900000e-007,-6.18749984e-004
,,,-9.67800000e-007,-8.81249995e-004
,,,-9.67700000e-007,-1.31249965e-004
,,,-9.67600000e-007,-1.35937465e-004
,,,-9.67500000e-007,-3.42187473e-004
,,,-9.67400000e-007,-4.40624977e-004
,,,-9.67300000e-007,-6.56249986e-004
,,,-9.67200000e-007,-9.23437496e-004
,,,-9.67100000e-007,-6.18749984e-004
,,,-9.67000000e-007,-1.35937465e-004
,,,-9.66900000e-007,-3.18749972e-004
,,,-9.66800000e-007,-5.01562480e-004
,,,-9.66700000e-007,-3.89062475e-004
,,,-9.66600000e-007,-5.15624980e-004
,,,-9.66500000e-007,-1.26562465e-004
,,,-9.66400000e-007,-4.68745995e-006
